D:\graduatedemo\XQCLLL\backend\service\src\main\java\com\kf\service\Impl\SysDictDataServiceImpl.java
D:\graduatedemo\XQCLLL\backend\service\src\main\java\com\kf\service\PaperFileService.java
D:\graduatedemo\XQCLLL\backend\service\src\main\java\com\kf\service\Impl\TreePermServiceImpl.java
D:\graduatedemo\XQCLLL\backend\service\src\main\java\com\kf\service\RolePermsService.java
D:\graduatedemo\XQCLLL\backend\service\src\main\java\com\kf\service\Impl\TeacherServiceImpl.java
D:\graduatedemo\XQCLLL\backend\service\src\main\java\com\kf\thread\DownloadExcelRunnable.java
D:\graduatedemo\XQCLLL\backend\service\src\main\java\com\kf\service\Impl\ReportServiceImpl.java
D:\graduatedemo\XQCLLL\backend\service\src\main\java\com\kf\service\CommonService.java
D:\graduatedemo\XQCLLL\backend\service\src\main\java\com\kf\service\Impl\LogSysSysOperationServiceImpl.java
D:\graduatedemo\XQCLLL\backend\service\src\main\java\com\kf\service\ChoCgyRecordService.java
D:\graduatedemo\XQCLLL\backend\service\src\main\java\com\kf\service\Impl\UserRoleServiceImpl.java
D:\graduatedemo\XQCLLL\backend\service\src\main\java\com\kf\service\Impl\PermissionServiceImpl.java
D:\graduatedemo\XQCLLL\backend\service\src\main\java\com\kf\service\NoticeService.java
D:\graduatedemo\XQCLLL\backend\service\src\main\java\com\kf\service\GradeService.java
D:\graduatedemo\XQCLLL\backend\service\src\main\java\com\kf\service\Impl\SysDictTypeServiceImpl.java
D:\graduatedemo\XQCLLL\backend\service\src\main\java\com\kf\service\StudentService.java
D:\graduatedemo\XQCLLL\backend\service\src\main\java\com\kf\service\UserService.java
D:\graduatedemo\XQCLLL\backend\service\src\main\java\com\kf\service\WenFileService.java
D:\graduatedemo\XQCLLL\backend\service\src\main\java\com\kf\service\NoticefileService.java
D:\graduatedemo\XQCLLL\backend\service\src\main\java\com\kf\thread\DownloadExcelRunnable1.java
D:\graduatedemo\XQCLLL\backend\service\src\main\java\com\kf\service\MidtermDefenceService.java
D:\graduatedemo\XQCLLL\backend\service\src\main\java\com\kf\service\Impl\AdminServiceImpl.java
D:\graduatedemo\XQCLLL\backend\service\src\main\java\com\kf\service\Impl\StudentServiceImpl.java
D:\graduatedemo\XQCLLL\backend\service\src\main\java\com\kf\service\SysDictTypeService.java
D:\graduatedemo\XQCLLL\backend\service\src\main\java\com\kf\service\Impl\ReportFileServiceImpl.java
D:\graduatedemo\XQCLLL\backend\service\src\main\java\com\kf\service\Impl\MidtermDefenceServiceImpl.java
D:\graduatedemo\XQCLLL\backend\service\src\main\java\com\kf\service\Impl\GradeServiceImpl.java
D:\graduatedemo\XQCLLL\backend\service\src\main\java\com\kf\service\Impl\RecordsServiceImpl.java
D:\graduatedemo\XQCLLL\backend\service\src\main\java\com\kf\service\Impl\LogLoginServiceImpl.java
D:\graduatedemo\XQCLLL\backend\service\src\main\java\com\kf\service\InspectionReportService.java
D:\graduatedemo\XQCLLL\backend\service\src\main\java\com\kf\service\TeacherService.java
D:\graduatedemo\XQCLLL\backend\service\src\main\java\com\kf\service\Impl\WenFileServiceImpl.java
D:\graduatedemo\XQCLLL\backend\service\src\main\java\com\kf\service\RoleService.java
D:\graduatedemo\XQCLLL\backend\service\src\main\java\com\kf\service\LogLoginService.java
D:\graduatedemo\XQCLLL\backend\service\src\main\java\com\kf\service\ReportFileService.java
D:\graduatedemo\XQCLLL\backend\service\src\main\java\com\kf\service\Impl\ChoCgyRecordServiceImpl.java
D:\graduatedemo\XQCLLL\backend\service\src\main\java\com\kf\service\Impl\LogErrorServiceImpl.java
D:\graduatedemo\XQCLLL\backend\service\src\main\java\com\kf\service\LogSysOperationService.java
D:\graduatedemo\XQCLLL\backend\service\src\main\java\com\kf\service\FileService.java
D:\graduatedemo\XQCLLL\backend\service\src\main\java\com\kf\service\NoticeRepository.java
D:\graduatedemo\XQCLLL\backend\service\src\main\java\com\kf\service\Impl\FileServiceImpl.java
D:\graduatedemo\XQCLLL\backend\service\src\main\java\com\kf\service\NacosService.java
D:\graduatedemo\XQCLLL\backend\service\src\main\java\com\kf\service\ReportService.java
D:\graduatedemo\XQCLLL\backend\service\src\main\java\com\kf\service\Impl\NoticeServiceImpl.java
D:\graduatedemo\XQCLLL\backend\service\src\main\java\com\kf\service\AdminService.java
D:\graduatedemo\XQCLLL\backend\service\src\main\java\com\kf\service\PermissionService.java
D:\graduatedemo\XQCLLL\backend\service\src\main\java\com\kf\service\Impl\ChoCgyServiceImpl.java
D:\graduatedemo\XQCLLL\backend\service\src\main\java\com\kf\service\SysDictDataService.java
D:\graduatedemo\XQCLLL\backend\service\src\main\java\com\kf\service\Impl\CategoryServiceImpl.java
D:\graduatedemo\XQCLLL\backend\service\src\main\java\com\kf\service\Impl\NoticefileServiceImpl.java
D:\graduatedemo\XQCLLL\backend\service\src\main\java\com\kf\service\UserRoleService.java
D:\graduatedemo\XQCLLL\backend\service\src\main\java\com\kf\service\LogErrorService.java
D:\graduatedemo\XQCLLL\backend\service\src\main\java\com\kf\service\ChoCgyService.java
D:\graduatedemo\XQCLLL\backend\service\src\main\java\com\kf\service\Impl\RoleServiceImpl.java
D:\graduatedemo\XQCLLL\backend\service\src\main\java\com\kf\service\Impl\StageServicelmpl.java
D:\graduatedemo\XQCLLL\backend\service\src\main\java\com\kf\service\DefenceService.java
D:\graduatedemo\XQCLLL\backend\service\src\main\java\com\kf\service\Impl\UserServiceImpl.java
D:\graduatedemo\XQCLLL\backend\service\src\main\java\com\kf\service\RecordsService.java
D:\graduatedemo\XQCLLL\backend\service\src\main\java\com\kf\service\Impl\PaperFileServiceImpl.java
D:\graduatedemo\XQCLLL\backend\service\src\main\java\com\kf\service\Impl\InspectionReportServiceImpl.java
D:\graduatedemo\XQCLLL\backend\service\src\main\java\com\kf\service\TreePermService.java
D:\graduatedemo\XQCLLL\backend\service\src\main\java\com\kf\service\Impl\CommonServiceImpl.java
D:\graduatedemo\XQCLLL\backend\service\src\main\java\com\kf\service\CategoryService.java
D:\graduatedemo\XQCLLL\backend\service\src\main\java\com\kf\service\Impl\DefenceServiceImpl.java
D:\graduatedemo\XQCLLL\backend\service\src\main\java\com\kf\service\StageService.java
D:\graduatedemo\XQCLLL\backend\service\src\main\java\com\kf\service\Impl\RolePermsServiceImpl.java
